…
X_train_m2=train_m2[,-7]
X_test_m2=test_m2[,-7]
y_train_m2=train_m2[,7]
y_test_m2=test_m2[,7]

X_m1 = faib_vri_true_m1_df[,-8]
y_m1 = faib_vri_true_m1_df[,8]
X_m2 = faib_vri_true_m2_df[,-7]
y_m2 = faib_vri_true_m2_df[,7]
```

    ## # A tibble: 634 × 8
    ##     elev slope   asp_cos asp_sin lead_htop species_class stemsha_L wsvha_L
    ##    <int> <int>     <dbl>   <dbl>     <dbl>         <dbl>     <dbl>   <dbl>
    ##  1   793    15 -1.84e-16  -1          23.0             1      770.    303.
    ##  2   793    15 -1.84e-16  -1          26.0             1      700.    384.
    ##  3   661     4  3.09e- 1   0.951      23.6             2      817.    338.
    ##  4   903     2  6.98e- 2  -0.998      18.3             1      315.    113.
    ##  5   903     2  6.98e- 2  -0.998      21.1             1      522.    184.
    ##  6   903     2  6.98e- 2  -0.998      24.4             1      660.    272.
    ##  7   903     2  6.98e- 2  -0.998      25.8             1      650.    356.
    ##  8   903     2  6.98e- 2  -0.998      26.0             2      414.    219.
    ##  9   825    10 -3.42e- 1  -0.940      18.3             2      335.    126.
    ## 10   825    10 -3.42e- 1  -0.940      21.7             2      325.    195.
    ## # … with 624 more rows
…
